# Alias OBJ Model File
# Exported from SketchUp, (c) 2000-2012 Trimble Navigation Limited
# File units = meters

mtllib hashtag.mtl

g Mesh1 Horizontal_Shelf Shelving_Unit1 Model

usemtl black
v 0 0.4699 -0.3048
vt 0 12
vn 0 1 -0
v 0 0.4699 -0
vt 0 0
v 1.3716 0.4699 -0
vt 36 0
v 1.3716 0.4699 -0.3048
vt 36 12
f 1/1/1 2/2/1 3/3/1 4/4/1 

v 0 0.4445 -0.3048
vt -12 0
vn -1 0 -0
v 0 0.4445 -0
vt 0 1
vt -12 1
f 5/5/2 6/2/2 2/6/2 1/7/2 

vn 0 -1 -0
v 1.3716 0.4445 -0.3048
vt -36 12
v 1.3716 0.4445 -0
vt -36 0
f 6/2/3 5/1/3 7/8/3 8/9/3 

vn 0 0 -1
vt -36 1
f 7/9/4 5/2/4 1/6/4 4/10/4 

vn 1 0 -0
vt 12 0
vt 12 1
f 8/2/5 7/11/5 4/12/5 3/6/5 

vn 0 0 1
vt 36 1
f 6/2/6 8/3/6 3/13/6 2/6/6 

g Mesh2 Vertical_Support Shelving_Unit1 Model

v 0.4445 1.3716 -0
vt 0 36
v 0.4445 0 -0
v 0.4699 0 -0
vt 1 0
v 0.4699 1.3716 -0
vt 1 36
f 9/14/6 10/2/6 11/15/6 12/16/6 

v 0.4445 1.3716 -0.3048
vt -12 36
v 0.4445 0 -0.3048
f 9/14/2 13/17/2 14/5/2 10/2/2 

v 0.4699 1.3716 -0.3048
vt 1 12
f 13/1/1 9/2/1 12/15/1 15/18/1 

vt 12 36
v 0.4699 0 -0.3048
f 15/19/5 12/14/5 11/2/5 16/11/5 

vt -1 12
vt -1 0
f 10/2/3 14/1/3 16/20/3 11/21/3 

vt -1 36
f 14/2/4 13/14/4 15/22/4 16/21/4 

g Mesh3 Horizontal_Shelf_copy_001 Shelving_Unit1 Model

v 0 0.9271 -0.3048
v 0 0.9271 -0
v 1.3716 0.9271 -0
v 1.3716 0.9271 -0.3048
f 17/1/1 18/2/1 19/3/1 20/4/1 

v 0 0.9017 -0.3048
v 0 0.9017 -0
f 21/5/2 22/2/2 18/6/2 17/7/2 

v 1.3716 0.9017 -0.3048
v 1.3716 0.9017 -0
f 22/2/3 21/1/3 23/8/3 24/9/3 

f 23/9/4 21/2/4 17/6/4 20/10/4 

f 24/2/5 23/11/5 20/12/5 19/6/5 

f 22/2/6 24/3/6 19/13/6 18/6/6 

g Mesh4 Vertical_Support_copy_001 Shelving_Unit1 Model

v 0.9017 1.3716 -0
v 0.9017 0 -0
v 0.9271 0 -0
v 0.9271 1.3716 -0
f 25/14/6 26/2/6 27/15/6 28/16/6 

v 0.9017 1.3716 -0.3048
v 0.9017 0 -0.3048
f 25/14/2 29/17/2 30/5/2 26/2/2 

v 0.9271 1.3716 -0.3048
f 29/1/1 25/2/1 28/15/1 31/18/1 

v 0.9271 0 -0.3048
f 31/19/5 28/14/5 27/2/5 32/11/5 

f 26/2/3 30/1/3 32/20/3 27/21/3 

f 30/2/4 29/14/4 31/22/4 32/21/4 

