# Alias OBJ Model File
# Exported from SketchUp, (c) 2000-2012 Trimble Navigation Limited
# File units = meters

mtllib umbrella.mtl

g Mesh1 Wood_Support1 Umbrella1 Model

usemtl _DarkOliveGreen_
v 0.248683 1.97748 -0.585046
vt 0.460656 23.6606
vn -0.101798 0.96398 0.245723
v 0.237844 1.97748 -0.589536
vt -0.00125495 23.6606
v 0.017952 1.81893 -0.0586663
vt 6.16854e-05 0.192892
v 0.0287921 1.81893 -0.0541762
vt 0.462001 0.192918
f 1/1/1 2/2/1 3/3/1 4/4/1 

v 0.251215 1.9687 -0.621815
vt -2.67633e-05 -21.6616
vn 0.0932356 0.969867 -0.225091
vt -1.11739e-08 -20.2434
vt -0.461911 -20.2434
v 0.262053 1.9687 -0.617325
vt -0.461906 -21.6616
f 5/5/2 2/6/2 1/7/2 6/8/2 

v 0.017952 2.13766 -0.0586664
vt -4.76382e-05 13.2732
vn -0.92388 -9.23726e-10 -0.382682
v 0.401897 1.88623 -0.985595
vt -39.5001 3.37461
v 0.393929 1.87502 -0.966358
vt -38.6803 2.93306
vt -23.998 6.62134
vt -22.6225 6.96688
v 0.017952 2.12182 -0.0586664
vt -4.76384e-05 12.6498
f 7/9/3 8/10/3 9/11/3 5/12/3 2/13/3 10/14/3 

vt -6.16915e-05 3.22642
vn 0.0930039 0.970006 -0.224586
v 0.0287893 2.13766 -0.0541775
vt -0.461879 3.22646
v 0.412734 1.88623 -0.981107
vt -0.465201 -37.4949
vt -0.00338346 -37.495
f 7/15/4 11/16/4 12/17/4 8/18/4 

vt 0.461879 13.2732
vn -0.382678 -3.90048e-10 0.923882
vt 6.16877e-05 13.2732
vt 6.16883e-05 12.6498
v 0.0287916 2.12182 -0.0541751
vt 0.462001 12.6498
f 11/19/5 7/20/5 10/21/5 13/22/5 

vt -0.462001 3.08194
vn 0.0932356 0.969867 -0.225091
vt -0.461911 -20.2434
vt -1.33447e-08 -20.2434
vt -6.1688e-05 3.08189
f 13/23/6 1/24/6 2/25/6 10/26/6 

vt 22.6224 6.96681
vn 0.923895 0.00015996 0.382645
vt 23.9979 6.62126
v 0.404769 1.87502 -0.961868
vt 38.6803 2.93298
vt 39.5 3.37455
vt 3.12719e-05 13.2732
vt -1.92711e-05 12.6497
f 1/27/7 6/28/7 14/29/7 12/30/7 11/31/7 13/32/7 

vt 23.998 6.62134
vn 0.923881 1.50559e-11 0.38268
vt 22.6224 6.96688
vt 4.30609e-05 0.725068
v 0.0287921 1.80052 -0.0541762
vt 4.57915e-05 -6.95583e-12
f 6/33/8 1/34/8 4/35/8 15/36/8 

vt 0.462001 -1.36483e-10
vn -0.382685 -2.82448e-06 0.923879
vt 0.462001 0.725068
vt 6.16879e-05 0.725061
v 0.017952 1.80052 -0.0586664
vt 6.16879e-05 -1.34554e-10
f 15/37/9 4/38/9 3/39/9 16/40/9 

vt -4.6273e-05 0.725061
vn -0.923881 3.12201e-13 -0.382681
vt -22.6225 6.96688
vt -23.998 6.62134
vt -4.76383e-05 1.92591e-17
f 3/41/10 2/42/10 5/43/10 16/44/10 

vt -4.62738e-05 0.725061
vn -0.923876 -4.20685e-05 -0.382692
vt -22.6225 6.96688
vt -23.998 6.62134
vt -4.7639e-05 -2.5951e-09
f 3/45/11 2/46/11 5/47/11 16/48/11 

vt -2.67556e-05 24.8947
vn 0.101784 -0.96398 -0.245729
vt -0.461906 24.8947
vt -0.462001 4.59225e-05
vt -6.1688e-05 4.59226e-05
f 5/49/12 6/50/12 15/51/12 16/52/12 

vt -5.37296e-06 -36.8001
vn 0.0932356 0.969867 -0.225091
vt -2.67491e-05 -21.6616
vt -0.461906 -21.6616
vt -0.461945 -36.8001
f 9/53/13 5/54/13 6/55/13 14/56/13 

vt -0.461397 35.4454
vn 0.181481 -0.880409 -0.438116
vt 0.000543017 35.4453
vt 0.000555833 36.3765
vt -0.461262 36.3765
f 14/57/14 9/58/14 8/59/14 12/60/14 

g Mesh2 Wood_Support2 Umbrella1 Model

v -0.237845 1.97748 -0.589536
vn 0.10177 0.96398 0.245734
v -0.248684 1.97748 -0.585046
v -0.0287894 1.81893 -0.0541773
v -0.0179493 1.81893 -0.0586674
f 17/1/15 18/2/15 19/3/15 20/4/15 

v -0.262054 1.9687 -0.617325
vn -0.0932356 0.969867 -0.225091
v -0.251215 1.9687 -0.621815
f 21/5/16 18/6/16 17/7/16 22/8/16 

v -0.0287894 2.13766 -0.0541773
vn -0.923879 -9.23726e-10 0.382685
v -0.412737 1.88623 -0.981105
v -0.404769 1.87502 -0.961868
v -0.0287894 2.12182 -0.0541773
f 23/9/17 24/10/17 25/11/17 21/12/17 18/13/17 26/14/17 

vn -0.0930423 0.970006 -0.22457
v -0.0179522 2.13766 -0.0586664
v -0.4019 1.88623 -0.985594
f 23/15/18 27/16/18 28/17/18 24/18/18 

vn 0.382689 -3.90048e-10 0.923877
v -0.0179488 2.12182 -0.0586664
f 27/19/19 23/20/19 26/21/19 29/22/19 

vn -0.0932356 0.969867 -0.225091
f 29/23/20 17/24/20 18/25/20 26/26/20 

vn 0.923864 0.00015996 -0.382722
v -0.393929 1.87502 -0.966358
f 17/27/21 22/28/21 30/29/21 28/30/21 27/31/21 29/32/21 

vn 0.923878 1.50559e-11 -0.382687
v -0.0179493 1.80052 -0.0586675
f 22/33/22 17/34/22 20/35/22 31/36/22 

vn 0.382682 -2.82448e-06 0.92388
v -0.0287894 1.80052 -0.0541773
f 31/37/23 20/38/23 19/39/23 32/40/23 

vn -0.923878 3.12201e-13 0.382686
f 19/41/24 18/42/24 21/43/24 32/44/24 

vn -0.923883 -4.20685e-05 0.382675
f 19/45/25 18/46/25 21/47/25 32/48/25 

vn -0.101784 -0.96398 -0.245729
f 21/49/26 22/50/26 31/51/26 32/52/26 

vn -0.0932356 0.969867 -0.225091
f 25/53/27 21/54/27 22/55/27 30/56/27 

vn -0.181468 -0.880409 -0.438121
f 30/57/28 25/58/28 24/59/28 28/60/28 

g Mesh3 Wood_Support3 Umbrella1 Model

v -0.585046 1.97748 -0.248683
vn 0.245723 0.96398 0.101798
v -0.589536 1.97748 -0.237844
v -0.0586663 1.81893 -0.017952
v -0.0541762 1.81893 -0.0287921
f 33/1/29 34/2/29 35/3/29 36/4/29 

v -0.621815 1.9687 -0.251215
vn -0.225091 0.969867 -0.0932356
v -0.617325 1.9687 -0.262053
f 37/5/30 34/6/30 33/7/30 38/8/30 

v -0.0586664 2.13766 -0.017952
vn -0.382682 -9.23726e-10 0.92388
v -0.985595 1.88623 -0.401897
v -0.966358 1.87502 -0.393929
v -0.0586664 2.12182 -0.017952
f 39/9/31 40/10/31 41/11/31 37/12/31 34/13/31 42/14/31 

vn -0.224586 0.970006 -0.0930039
v -0.0541775 2.13766 -0.0287893
v -0.981107 1.88623 -0.412734
f 39/15/32 43/16/32 44/17/32 40/18/32 

vn 0.923882 -3.90048e-10 0.382678
v -0.0541751 2.12182 -0.0287916
f 43/19/33 39/20/33 42/21/33 45/22/33 

vn -0.225091 0.969867 -0.0932356
f 45/23/34 33/24/34 34/25/34 42/26/34 

vn 0.382645 0.00015996 -0.923895
v -0.961868 1.87502 -0.404769
f 33/27/35 38/28/35 46/29/35 44/30/35 43/31/35 45/32/35 

vn 0.38268 1.50559e-11 -0.923881
v -0.0541762 1.80052 -0.0287921
f 38/33/36 33/34/36 36/35/36 47/36/36 

vn 0.923879 -2.82448e-06 0.382685
v -0.0586664 1.80052 -0.017952
f 47/37/37 36/38/37 35/39/37 48/40/37 

vn -0.382681 3.12201e-13 0.923881
f 35/41/38 34/42/38 37/43/38 48/44/38 

vn -0.382692 -4.20685e-05 0.923876
f 35/45/39 34/46/39 37/47/39 48/48/39 

vn -0.245729 -0.96398 -0.101784
f 37/49/40 38/50/40 47/51/40 48/52/40 

vn -0.225091 0.969867 -0.0932356
f 41/53/41 37/54/41 38/55/41 46/56/41 

vn -0.438116 -0.880409 -0.181481
f 46/57/42 41/58/42 40/59/42 44/60/42 

g Mesh4 Wood_Support4 Umbrella1 Model

v -0.589536 1.97748 0.237845
vn 0.245734 0.96398 -0.10177
v -0.585046 1.97748 0.248684
v -0.0541773 1.81893 0.0287894
v -0.0586674 1.81893 0.0179493
f 49/1/43 50/2/43 51/3/43 52/4/43 

v -0.617325 1.9687 0.262054
vn -0.225091 0.969867 0.0932356
v -0.621815 1.9687 0.251215
f 53/5/44 50/6/44 49/7/44 54/8/44 

v -0.0541773 2.13766 0.0287894
vn 0.382685 -9.23726e-10 0.923879
v -0.981105 1.88623 0.412737
v -0.961868 1.87502 0.404769
v -0.0541773 2.12182 0.0287894
f 55/9/45 56/10/45 57/11/45 53/12/45 50/13/45 58/14/45 

vn -0.22457 0.970006 0.0930423
v -0.0586664 2.13766 0.0179522
v -0.985594 1.88623 0.4019
f 55/15/46 59/16/46 60/17/46 56/18/46 

vn 0.923877 -3.90048e-10 -0.382689
v -0.0586664 2.12182 0.0179488
f 59/19/47 55/20/47 58/21/47 61/22/47 

vn -0.225091 0.969867 0.0932356
f 61/23/48 49/24/48 50/25/48 58/26/48 

vn -0.382722 0.00015996 -0.923864
v -0.966358 1.87502 0.393929
f 49/27/49 54/28/49 62/29/49 60/30/49 59/31/49 61/32/49 

vn -0.382687 1.50559e-11 -0.923878
v -0.0586675 1.80052 0.0179493
f 54/33/50 49/34/50 52/35/50 63/36/50 

vn 0.92388 -2.82448e-06 -0.382682
v -0.0541773 1.80052 0.0287894
f 63/37/51 52/38/51 51/39/51 64/40/51 

vn 0.382686 3.12201e-13 0.923878
f 51/41/52 50/42/52 53/43/52 64/44/52 

vn 0.382675 -4.20685e-05 0.923883
f 51/45/53 50/46/53 53/47/53 64/48/53 

vn -0.245729 -0.96398 0.101784
f 53/49/54 54/50/54 63/51/54 64/52/54 

vn -0.225091 0.969867 0.0932356
f 57/53/55 53/54/55 54/55/55 62/56/55 

vn -0.438121 -0.880409 0.181468
f 62/57/56 57/58/56 56/59/56 60/60/56 

g Mesh5 Wood_Support5 Umbrella1 Model

v -0.248683 1.97748 0.585046
vn 0.101798 0.96398 -0.245723
v -0.237844 1.97748 0.589536
v -0.017952 1.81893 0.0586663
v -0.0287921 1.81893 0.0541762
f 65/1/57 66/2/57 67/3/57 68/4/57 

v -0.251215 1.9687 0.621815
vn -0.0932356 0.969867 0.225091
v -0.262053 1.9687 0.617325
f 69/5/58 66/6/58 65/7/58 70/8/58 

v -0.017952 2.13766 0.0586664
vn 0.92388 -9.23726e-10 0.382682
v -0.401897 1.88623 0.985595
v -0.393929 1.87502 0.966358
v -0.017952 2.12182 0.0586664
f 71/9/59 72/10/59 73/11/59 69/12/59 66/13/59 74/14/59 

vn -0.0930039 0.970006 0.224586
v -0.0287893 2.13766 0.0541775
v -0.412734 1.88623 0.981107
f 71/15/60 75/16/60 76/17/60 72/18/60 

vn 0.382678 -3.90048e-10 -0.923882
v -0.0287916 2.12182 0.0541751
f 75/19/61 71/20/61 74/21/61 77/22/61 

vn -0.0932356 0.969867 0.225091
f 77/23/62 65/24/62 66/25/62 74/26/62 

vn -0.923895 0.00015996 -0.382645
v -0.404769 1.87502 0.961868
f 65/27/63 70/28/63 78/29/63 76/30/63 75/31/63 77/32/63 

vn -0.923881 1.50559e-11 -0.38268
v -0.0287921 1.80052 0.0541762
f 70/33/64 65/34/64 68/35/64 79/36/64 

vn 0.382685 -2.82448e-06 -0.923879
v -0.017952 1.80052 0.0586664
f 79/37/65 68/38/65 67/39/65 80/40/65 

vn 0.923881 3.12201e-13 0.382681
f 67/41/66 66/42/66 69/43/66 80/44/66 

vn 0.923876 -4.20685e-05 0.382692
f 67/45/67 66/46/67 69/47/67 80/48/67 

vn -0.101784 -0.96398 0.245729
f 69/49/68 70/50/68 79/51/68 80/52/68 

vn -0.0932356 0.969867 0.225091
f 73/53/69 69/54/69 70/55/69 78/56/69 

vn -0.181481 -0.880409 0.438116
f 78/57/70 73/58/70 72/59/70 76/60/70 

g Mesh6 Wood_Support6 Umbrella1 Model

v 0.237845 1.97748 0.589536
vn -0.10177 0.96398 -0.245734
v 0.248684 1.97748 0.585046
v 0.0287894 1.81893 0.0541773
v 0.0179493 1.81893 0.0586674
f 81/1/71 82/2/71 83/3/71 84/4/71 

v 0.262054 1.9687 0.617325
vn 0.0932356 0.969867 0.225091
v 0.251215 1.9687 0.621815
f 85/5/72 82/6/72 81/7/72 86/8/72 

v 0.0287894 2.13766 0.0541773
vn 0.923879 -9.23726e-10 -0.382685
v 0.412737 1.88623 0.981105
v 0.404769 1.87502 0.961868
v 0.0287894 2.12182 0.0541773
f 87/9/73 88/10/73 89/11/73 85/12/73 82/13/73 90/14/73 

vn 0.0930423 0.970006 0.22457
v 0.0179522 2.13766 0.0586664
v 0.4019 1.88623 0.985594
f 87/15/74 91/16/74 92/17/74 88/18/74 

vn -0.382689 -3.90048e-10 -0.923877
v 0.0179488 2.12182 0.0586664
f 91/19/75 87/20/75 90/21/75 93/22/75 

vn 0.0932356 0.969867 0.225091
f 93/23/76 81/24/76 82/25/76 90/26/76 

vn -0.923864 0.00015996 0.382722
v 0.393929 1.87502 0.966358
f 81/27/77 86/28/77 94/29/77 92/30/77 91/31/77 93/32/77 

vn -0.923878 1.50559e-11 0.382687
v 0.0179493 1.80052 0.0586675
f 86/33/78 81/34/78 84/35/78 95/36/78 

vn -0.382682 -2.82448e-06 -0.92388
v 0.0287894 1.80052 0.0541773
f 95/37/79 84/38/79 83/39/79 96/40/79 

vn 0.923878 3.12201e-13 -0.382686
f 83/41/80 82/42/80 85/43/80 96/44/80 

vn 0.923883 -4.20685e-05 -0.382675
f 83/45/81 82/46/81 85/47/81 96/48/81 

vn 0.101784 -0.96398 0.245729
f 85/49/82 86/50/82 95/51/82 96/52/82 

vn 0.0932356 0.969867 0.225091
f 89/53/83 85/54/83 86/55/83 94/56/83 

vn 0.181468 -0.880409 0.438121
f 94/57/84 89/58/84 88/59/84 92/60/84 

g Mesh7 Wood_Support7 Umbrella1 Model

v 0.585046 1.97748 0.248683
vn -0.245723 0.96398 -0.101798
v 0.589536 1.97748 0.237844
v 0.0586663 1.81893 0.017952
v 0.0541762 1.81893 0.0287921
f 97/1/85 98/2/85 99/3/85 100/4/85 

v 0.621815 1.9687 0.251215
vn 0.225091 0.969867 0.0932356
v 0.617325 1.9687 0.262053
f 101/5/86 98/6/86 97/7/86 102/8/86 

v 0.0586664 2.13766 0.017952
vn 0.382682 -9.23726e-10 -0.92388
v 0.985595 1.88623 0.401897
v 0.966358 1.87502 0.393929
v 0.0586664 2.12182 0.017952
f 103/9/87 104/10/87 105/11/87 101/12/87 98/13/87 106/14/87 

vn 0.224586 0.970006 0.0930039
v 0.0541775 2.13766 0.0287893
v 0.981107 1.88623 0.412734
f 103/15/88 107/16/88 108/17/88 104/18/88 

vn -0.923882 -3.90048e-10 -0.382678
v 0.0541751 2.12182 0.0287916
f 107/19/89 103/20/89 106/21/89 109/22/89 

vn 0.225091 0.969867 0.0932356
f 109/23/90 97/24/90 98/25/90 106/26/90 

vn -0.382645 0.00015996 0.923895
v 0.961868 1.87502 0.404769
f 97/27/91 102/28/91 110/29/91 108/30/91 107/31/91 109/32/91 

vn -0.38268 1.50559e-11 0.923881
v 0.0541762 1.80052 0.0287921
f 102/33/92 97/34/92 100/35/92 111/36/92 

vn -0.923879 -2.82448e-06 -0.382685
v 0.0586664 1.80052 0.017952
f 111/37/93 100/38/93 99/39/93 112/40/93 

vn 0.382681 3.12201e-13 -0.923881
f 99/41/94 98/42/94 101/43/94 112/44/94 

vn 0.382692 -4.20685e-05 -0.923876
f 99/45/95 98/46/95 101/47/95 112/48/95 

vn 0.245729 -0.96398 0.101784
f 101/49/96 102/50/96 111/51/96 112/52/96 

vn 0.225091 0.969867 0.0932356
f 105/53/97 101/54/97 102/55/97 110/56/97 

vn 0.438116 -0.880409 0.181481
f 110/57/98 105/58/98 104/59/98 108/60/98 

g Mesh8 Wood_Support8 Umbrella1 Model

v 0.589536 1.97748 -0.237845
vn -0.245734 0.96398 0.10177
v 0.585046 1.97748 -0.248684
v 0.0541773 1.81893 -0.0287894
v 0.0586674 1.81893 -0.0179493
f 113/1/99 114/2/99 115/3/99 116/4/99 

v 0.617325 1.9687 -0.262054
vn 0.225091 0.969867 -0.0932356
v 0.621815 1.9687 -0.251215
f 117/5/100 114/6/100 113/7/100 118/8/100 

v 0.0541773 2.13766 -0.0287894
vn -0.382685 -9.23726e-10 -0.923879
v 0.981105 1.88623 -0.412737
v 0.961868 1.87502 -0.404769
v 0.0541773 2.12182 -0.0287894
f 119/9/101 120/10/101 121/11/101 117/12/101 114/13/101 122/14/101 

vn 0.22457 0.970006 -0.0930423
v 0.0586664 2.13766 -0.0179522
v 0.985594 1.88623 -0.4019
f 119/15/102 123/16/102 124/17/102 120/18/102 

vn -0.923877 -3.90048e-10 0.382689
v 0.0586664 2.12182 -0.0179488
f 123/19/103 119/20/103 122/21/103 125/22/103 

vn 0.225091 0.969867 -0.0932356
f 125/23/104 113/24/104 114/25/104 122/26/104 

vn 0.382722 0.00015996 0.923864
v 0.966358 1.87502 -0.393929
f 113/27/105 118/28/105 126/29/105 124/30/105 123/31/105 125/32/105 

vn 0.382687 1.50559e-11 0.923878
v 0.0586675 1.80052 -0.0179493
f 118/33/106 113/34/106 116/35/106 127/36/106 

vn -0.92388 -2.82448e-06 0.382682
v 0.0541773 1.80052 -0.0287894
f 127/37/107 116/38/107 115/39/107 128/40/107 

vn -0.382686 3.12201e-13 -0.923878
f 115/41/108 114/42/108 117/43/108 128/44/108 

vn -0.382675 -4.20685e-05 -0.923883
f 115/45/109 114/46/109 117/47/109 128/48/109 

vn 0.245729 -0.96398 -0.101784
f 117/49/110 118/50/110 127/51/110 128/52/110 

vn 0.225091 0.969867 -0.0932356
f 121/53/111 117/54/111 118/55/111 126/56/111 

vn 0.438121 -0.880409 -0.181468
f 126/57/112 121/58/112 120/59/112 124/60/112 

g Mesh9 Umbrella1 Model

usemtl _SaddleBrown_
v -0.0243004 1.77641 -0.0586664
vt 0.956709 2.3097
vn 0 -1 -0
v 0.0243004 1.77641 -0.0586664
vt -0.956709 2.3097
v 0.0586664 1.77641 -0.0243004
vt -2.3097 0.956709
v 0.0586664 1.77641 0.0243004
vt -2.3097 -0.956709
v 0.0243004 1.77641 0.0586664
vt -0.956709 -2.3097
v -0.0243004 1.77641 0.0586664
vt 0.956709 -2.3097
v -0.0586664 1.77641 0.0243004
vt 2.3097 -0.956709
v -0.0586664 1.77641 -0.0243004
vt 2.3097 0.956709
f 129/61/113 130/62/113 131/63/113 132/64/113 133/65/113 134/66/113 135/67/113 136/68/113 

vt -0.956709 69.9375
vn 0.382683 0 -0.92388
vt 0.956709 69.9375
vn -0.382683 0 -0.92388
v -0.0243004 1.83039 -0.0586664
vt 0.956709 72.0625
v 0.0243004 1.83039 -0.0586664
vt -0.956709 72.0625
f 130/69/114 129/70/115 137/71/115 138/72/114 

vt -0.956709 69.9375
vt 0.956709 69.9375
vn -0.92388 0 -0.382683
v -0.0586664 1.83039 -0.0243004
vt 0.956709 72.0625
vt -0.956709 72.0625
f 129/73/115 136/74/116 139/75/116 137/76/115 

vt -0.956709 69.9375
vt 0.956709 69.9375
vn -0.92388 0 0.382683
v -0.0586664 1.83039 0.0243004
vt 0.956709 72.0625
vt -0.956709 72.0625
f 136/77/116 135/78/117 140/79/117 139/80/116 

vt -0.956709 69.9375
vt 0.956709 69.9375
vn -0.382683 0 0.92388
v -0.0243004 1.83039 0.0586664
vt 0.956709 72.0625
vt -0.956709 72.0625
f 135/81/117 134/82/118 141/83/118 140/84/117 

vt -0.956709 69.9375
vt 0.956709 69.9375
vn 0.382683 0 0.92388
v 0.0243004 1.83039 0.0586664
vt 0.956709 72.0625
vt -0.956709 72.0625
f 134/85/118 133/86/119 142/87/119 141/88/118 

vt -0.956709 69.9375
vt 0.956709 69.9375
vn 0.92388 0 0.382683
v 0.0586664 1.83039 0.0243004
vt 0.956709 72.0625
vt -0.956709 72.0625
f 133/89/119 132/90/120 143/91/120 142/92/119 

vt -0.956709 69.9375
vt 0.956709 69.9375
vn 0.92388 0 -0.382683
v 0.0586664 1.83039 -0.0243004
vt 0.956709 72.0625
vt -0.956709 72.0625
f 132/93/120 131/94/121 144/95/121 143/96/120 

vt -0.956709 69.9375
vt 0.956709 69.9375
vt 0.956709 72.0625
vt -0.956709 72.0625
f 131/97/121 130/98/114 138/99/114 144/100/121 

vt 0.956709 2.3097
vn 0 1 -0
vt -0.956709 2.3097
vt -2.3097 0.956709
vt -2.3097 -0.956709
vt -0.956709 -2.3097
vt 0.956709 -2.3097
vt 2.3097 -0.956709
vt 2.3097 0.956709
f 138/101/122 137/102/122 139/103/122 140/104/122 141/105/122 142/106/122 143/107/122 144/108/122 

g Mesh10 Umbrella1 Model

v -0.0243004 2.10661 -0.0586664
v -0.0314245 2.10661 0.0045347
vt 1.23718 -0.178531
v -0.0586664 2.10661 -0.0243004
f 145/61/113 146/109/113 147/68/113

v -0.025427 2.10661 -0.019014
vt 1.00106 0.748581
f 146/109/113 145/61/113 148/110/113

v -0.0045347 2.10661 -0.0314245
vt 0.178531 1.23718
f 148/110/113 145/61/113 149/111/113

v 0.0243004 2.10661 -0.0586664
f 149/111/113 145/61/113 150/62/113

vt -0.956709 82.9375
vt 0.956709 82.9375
v -0.0243004 2.13766 -0.0586664
vt 0.956709 84.1597
v 0.0243004 2.13766 -0.0586664
vt -0.956709 84.1597
f 150/112/114 145/113/115 151/114/115 152/115/114 

vt -0.956709 82.9375
vt 0.956709 82.9375
v -0.0586664 2.13766 -0.0243004
vt 0.956709 84.1597
vt -0.956709 84.1597
f 145/116/115 147/117/116 153/118/116 151/119/115 

vt -0.956709 82.9375
v -0.0586664 2.10661 0.0243004
vt 0.956709 82.9375
v -0.0586664 2.13766 0.0243004
vt 0.956709 84.1597
vt -0.956709 84.1597
f 147/120/116 154/121/117 155/122/117 153/123/116 

v -0.0243004 2.10661 0.0586664
f 147/68/113 156/66/113 154/67/113

f 156/66/113 147/68/113 146/109/113

v -0.019014 2.10661 0.025427
vt 0.748581 -1.00106
f 156/66/113 146/109/113 157/124/113

vt 0.478354 82.9375
vn -0.598865 6.07054e-18 0.80085
vt -0.478354 82.9375
vn -0.989748 3.13689e-18 0.142825
v -0.0314245 0.0381 0.0045347
vt -0.478354 1.5
v -0.019014 0.0381 0.025427
vt 0.478354 1.5
f 157/125/123 146/126/124 158/127/124 159/128/123 

usemtl FrontColor
vt -1.23718 -0.178531
vn 9.03022e-15 1 -5.36417e-15
vt -0.748581 -1.00106
v 0.0045347 2.10661 0.0314245
vt 0.178531 -1.23718
v 0.025427 2.10661 0.019014
vt 1.00106 -0.748581
v 0.0314245 2.10661 -0.0045347
vt 1.23718 0.178531
v 0.019014 2.10661 -0.025427
vt 0.748581 1.00106
vt -0.178531 1.23718
vt -1.00106 0.748581
f 146/129/125 157/130/125 160/131/125 161/132/125 162/133/125 163/134/125 149/135/125 148/136/125 

usemtl _SaddleBrown_
v 0.0243004 2.10661 0.0586664
vt -0.178531 -1.23718
f 164/65/113 157/124/113 160/137/113

f 156/66/113 157/124/113 164/65/113

vt -0.956709 82.9375
vt 0.956709 82.9375
v 0.0243004 2.13766 0.0586664
vt 0.956709 84.1597
v -0.0243004 2.13766 0.0586664
vt -0.956709 84.1597
f 156/138/118 164/139/119 165/140/119 166/141/118 

vt -0.956709 82.9375
v 0.0586664 2.10661 0.0243004
vt 0.956709 82.9375
v 0.0586664 2.13766 0.0243004
vt 0.956709 84.1597
vt -0.956709 84.1597
f 164/142/119 167/143/120 168/144/120 165/145/119 

vt -1.00106 -0.748581
f 164/65/113 161/146/113 167/64/113

f 164/65/113 160/137/113 161/146/113

vt 0.478354 82.9375
vn 0.80085 -5.26569e-21 0.598865
vt -0.478354 82.9375
vn 0.142825 0 0.989748
v 0.0045347 0.0381 0.0314245
vt -0.478354 1.5
v 0.025427 0.0381 0.019014
vt 0.478354 1.5
f 161/147/126 160/148/127 169/149/127 170/150/126 

vt 0.478354 82.9375
vt -0.478354 82.9375
vt -0.478354 1.5
vt 0.478354 1.5
f 160/151/127 157/152/123 159/153/123 169/154/127 

usemtl _Charcoal_
vt -0.748581 -1.00106
v 0.116642 0.0381 0.281598
vt 4.5922 -11.0866
vt 0.178531 -1.23718
f 159/155/122 171/156/122 169/157/122

vt -1.23718 -0.178531
f 158/158/122 171/156/122 159/155/122

v -0.116642 0.0381 0.281598
vt -4.5922 -11.0866
f 158/158/122 172/159/122 171/156/122

v -0.116642 0.0381 -0.281598
vt -4.5922 11.0866
f 173/160/122 172/159/122 158/158/122

v -0.281598 0.0381 -0.116642
vt -11.0866 4.5922
f 174/161/122 172/159/122 173/160/122

v -0.281598 0.0381 0.116642
vt -11.0866 -4.5922
f 172/159/122 174/161/122 175/162/122

v -0.281598 0 -0.116642
vt -4.5922 0
vn -0.92388 0 -0.382683
v -0.281598 0 0.116642
vt 4.5922 0
vn -0.92388 0 0.382683
vt 4.5922 1.5
vt -4.5922 1.5
f 176/163/128 177/164/129 175/165/129 174/166/128 

vt -4.5922 0
v -0.116642 0 0.281598
vn -0.382683 0 0.92388
vt -4.5922 1.5
f 177/167/129 178/164/130 172/165/130 175/168/129 

vt -4.5922 0
v 0.116642 0 0.281598
vt 4.5922 0
vn 0.382683 0 0.92388
vt 4.5922 1.5
vt -4.5922 1.5
f 178/169/130 179/170/131 171/171/131 172/172/130 

vt -4.5922 0
v 0.281598 0 0.116642
vt 4.5922 0
vn 0.92388 0 0.382683
v 0.281598 0.0381 0.116642
vt 4.5922 1.5
vt -4.5922 1.5
f 179/173/131 180/174/132 181/175/132 171/176/131 

vt -4.5922 0
v 0.281598 0 -0.116642
vt 4.5922 0
vn 0.92388 0 -0.382683
v 0.281598 0.0381 -0.116642
vt 4.5922 1.5
vt -4.5922 1.5
f 180/177/132 182/178/133 183/179/133 181/180/132 

vt -4.5922 0
v 0.116642 0 -0.281598
vt 4.5922 0
vn 0.382683 0 -0.92388
v 0.116642 0.0381 -0.281598
vt 4.5922 1.5
vt -4.5922 1.5
f 182/181/133 184/182/134 185/183/134 183/184/133 

vt -4.5922 0
v -0.116642 0 -0.281598
vn -0.382683 0 -0.92388
vt -4.5922 1.5
f 184/185/134 186/164/135 173/165/135 185/186/134 

vt -4.5922 0
vt 4.5922 0
vt 4.5922 1.5
vt -4.5922 1.5
f 186/187/135 176/188/128 174/189/128 173/190/135 

v -0.025427 0.0381 -0.019014
vt -1.00106 0.748581
vt 4.5922 11.0866
f 173/160/122 187/191/122 185/192/122

f 187/191/122 173/160/122 158/158/122

usemtl _SaddleBrown_
vt 0.478354 82.9375
vt -0.478354 82.9375
vn -0.80085 -2.93364e-18 -0.598865
vt -0.478354 1.5
vt 0.478354 1.5
f 146/193/124 148/194/136 187/195/136 158/196/124 

vt 0.478354 82.9375
vt -0.478354 82.9375
vn -0.142825 5.26569e-21 -0.989748
v -0.0045347 0.0381 -0.0314245
vt -0.478354 1.5
vt 0.478354 1.5
f 148/197/136 149/198/137 188/199/137 187/200/136 

vt 0.478354 82.9375
vt -0.478354 82.9375
vn 0.598865 5.26569e-21 -0.80085
v 0.019014 0.0381 -0.025427
vt -0.478354 1.5
vt 0.478354 1.5
f 149/201/137 163/202/138 189/203/138 188/204/137 

vt -0.748581 1.00106
f 149/111/113 150/62/113 163/205/113

vt -1.23718 0.178531
f 163/205/113 150/62/113 162/206/113

v 0.0586664 2.10661 -0.0243004
f 162/206/113 150/62/113 190/63/113

vt -0.956709 82.9375
vt 0.956709 82.9375
vt 0.956709 84.1597
v 0.0586664 2.13766 -0.0243004
vt -0.956709 84.1597
f 190/207/121 150/208/114 152/209/114 191/210/121 

vt -0.956709 82.9375
vt 0.956709 82.9375
vt 0.956709 84.1597
vt -0.956709 84.1597
f 167/211/120 190/212/121 191/213/121 168/214/120 

f 167/64/113 162/206/113 190/63/113

f 167/64/113 161/146/113 162/206/113

vt 0.478354 82.9375
vn 0.989748 -5.26569e-21 -0.142825
vt -0.478354 1.5
v 0.0314245 0.0381 -0.0045347
vt 0.478354 1.5
f 162/215/139 161/126/126 170/216/126 192/217/139 

usemtl _Charcoal_
vt 1.00106 -0.748581
vt 1.23718 0.178531
f 170/218/122 171/156/122 192/219/122

f 169/157/122 171/156/122 170/218/122

f 192/219/122 171/156/122 185/192/122

vt 11.0866 4.5922
f 185/192/122 171/156/122 183/220/122

vt 11.0866 -4.5922
f 183/220/122 171/156/122 181/221/122

vt 0.748581 1.00106
f 185/192/122 189/222/122 192/219/122

vt -0.178531 1.23718
f 185/192/122 188/223/122 189/222/122

f 185/192/122 187/191/122 188/223/122

usemtl _SaddleBrown_
vt 0.478354 82.9375
vt -0.478354 82.9375
vt -0.478354 1.5
vt 0.478354 1.5
f 163/224/138 162/225/139 192/226/139 189/227/138 

vt -0.956709 82.9375
vt 0.956709 82.9375
vt 0.956709 84.1597
vt -0.956709 84.1597
f 154/228/117 156/229/118 166/230/118 155/231/117 

g Mesh11 Umbrella1 Model

usemtl _DarkOliveGreen_
v 9.02389e-17 2.1594 1.75966e-15
vt 1.25607e-15 22.5752
vn 0.187767 0.964099 0.187767
v 0.135417 2.06935 0.326925
vt -5.33137 9.22487
v 0.326925 2.06935 0.135417
vt 5.33137 9.22487
f 193/232/140 194/233/140 195/234/140

vt 7.10543e-15 22.5752
vn -2.57605e-16 0.964099 0.265542
v -0.135417 2.06935 0.326925
vt -5.33137 9.22487
vt 5.33137 9.22487
f 193/235/141 196/236/141 194/237/141

vt 8.79252e-15 22.5752
vn -0.187767 0.964099 0.187767
v -0.326925 2.06935 0.135417
vt -5.33137 9.22487
vt 5.33137 9.22487
f 193/238/142 197/239/142 196/240/142

vt 5.32907e-15 22.5752
vn -0.265542 0.964099 -3.96237e-16
v -0.326925 2.06935 -0.135417
vt -5.33137 9.22487
vt 5.33137 9.22487
f 193/241/143 198/242/143 197/243/143

vt 5.20283e-16 22.5752
vn -0.187767 0.964099 -0.187767
v -0.135417 2.06935 -0.326925
vt -5.33137 9.22487
vt 5.33137 9.22487
f 193/244/144 199/245/144 198/246/144

vt -7.10543e-15 22.5752
vn 3.32166e-16 0.964099 -0.265542
v 0.135417 2.06935 -0.326925
vt -5.33137 9.22487
vt 5.33137 9.22487
f 193/247/145 200/248/145 199/249/145

vt -1.05689e-14 22.5752
vn 0.187767 0.964099 -0.187767
v 0.326925 2.06935 -0.135417
vt -5.33137 9.22487
vt 5.33137 9.22487
f 193/250/146 201/251/146 200/252/146

vt -5.32907e-15 22.5752
vn 0.265542 0.964099 -7.66114e-18
vt -5.33137 9.22487
vt 5.33137 9.22487
f 193/253/147 195/254/147 201/255/147

v 0.985595 1.88793 -0.408247
vt 16.0727 -17.6726
vn 0.265542 0.964099 1.05277e-16
vt 5.33137 9.22487
vt -5.33137 9.22487
v 0.985595 1.88793 0.408247
vt -16.0727 -17.6726
f 202/256/148 201/257/148 195/258/148 203/259/148 

v 0.408247 1.88793 -0.985595
vt 16.0727 -17.6726
vn 0.187767 0.964099 -0.187767
vt 5.33137 9.22487
vt -5.33137 9.22487
vt -16.0727 -17.6726
f 204/260/149 200/261/149 201/262/149 202/263/149 

v -0.408247 1.88793 -0.985595
vt 16.0727 -17.6726
vn 1.31596e-16 0.964099 -0.265542
vt 5.33137 9.22487
vt -5.33137 9.22487
vt -16.0727 -17.6726
f 205/264/150 199/265/150 200/266/150 204/267/150 

v -0.985595 1.88793 -0.408247
vt 16.0727 -17.6726
vn -0.187767 0.964099 -0.187767
vt 5.33137 9.22487
vt -5.33137 9.22487
vt -16.0727 -17.6726
f 206/268/151 198/269/151 199/270/151 205/271/151 

v -0.985595 1.88793 0.408247
vt 16.0727 -17.6726
vn -0.265542 0.964099 -3.58748e-16
vt 5.33137 9.22487
vt -5.33137 9.22487
vt -16.0727 -17.6726
f 207/272/152 197/273/152 198/274/152 206/275/152 

v -0.408247 1.88793 0.985595
vt 16.0727 -17.6726
vn -0.187767 0.964099 0.187767
vt 5.33137 9.22487
vt -5.33137 9.22487
vt -16.0727 -17.6726
f 208/276/153 196/277/153 197/278/153 207/279/153 

v 0.408247 1.88793 0.985595
vt 16.0727 -17.6726
vn -4.46005e-16 0.964099 0.265542
vt 5.33137 9.22487
vt -5.33137 9.22487
vt -16.0727 -17.6726
f 209/280/154 194/281/154 196/282/154 208/283/154 

vt 16.0727 -17.6726
vn 0.187767 0.964099 0.187767
vt 5.33137 9.22487
vt -5.33137 9.22487
vt -16.0727 -17.6726
f 203/284/155 195/285/155 194/286/155 209/287/155 

